{
	"info": {
		"_postman_id": "e2961c69-ddaa-40fd-811e-ca6040884aa4",
		"name": "Endpoints Monoma",
		"schema": "https://schema.getpostman.com/json/collection/v2.1.0/collection.json",
		"_exporter_id": "592672"
	},
	"item": [
		{
			"name": "auth",
			"request": {
				"method": "POST",
				"header": [],
				"body": {
					"mode": "formdata",
					"formdata": [
						{
							"key": "password",
							"value": "password",
							"type": "text"
						},
						{
							"key": "username",
							"value": "olaya",
							"type": "text"
						}
					]
				},
				"url": {
					"raw": "http://127.0.0.1:8000/api/auth",
					"protocol": "http",
					"host": [
						"127",
						"0",
						"0",
						"1"
					],
					"port": "8000",
					"path": [
						"api",
						"auth"
					]
				}
			},
			"response": []
		},
		{
			"name": "leads",
			"request": {
				"auth": {
					"type": "bearer",
					"bearer": [
						{
							"key": "token",
							"value": "eyJ0eXAiOiJKV1QiLCJhbGciOiJIUzI1NiJ9.eyJpc3MiOiJodHRwOlwvXC8xMjcuMC4wLjE6ODAwMFwvYXBpXC9hdXRoIiwiaWF0IjoxNjc0NDUwMjM2LCJleHAiOjE2NzQ1MzY2MzYsIm5iZiI6MTY3NDQ1MDIzNiwianRpIjoiOVkxaEI5elc4SE1aNHREaSIsInN1YiI6MiwicHJ2IjoiMjNiZDVjODk0OWY2MDBhZGIzOWU3MDFjNDAwODcyZGI3YTU5NzZmNyJ9.QvHSqwq_VH_1AQBdcO-T7FflgAgCpoPbNeUU04JJGA8",
							"type": "string"
						}
					]
				},
				"method": "GET",
				"header": [],
				"url": {
					"raw": "http://127.0.0.1:8000/api/leads",
					"protocol": "http",
					"host": [
						"127",
						"0",
						"0",
						"1"
					],
					"port": "8000",
					"path": [
						"api",
						"leads"
					]
				}
			},
			"response": []
		},
		{
			"name": "lead",
			"request": {
				"auth": {
					"type": "bearer",
					"bearer": [
						{
							"key": "token",
							"value": "eyJ0eXAiOiJKV1QiLCJhbGciOiJIUzI1NiJ9.eyJpc3MiOiJodHRwOlwvXC8xMjcuMC4wLjE6ODAwMFwvYXBpXC9hdXRoIiwiaWF0IjoxNjc0NTMxMTkxLCJleHAiOjE2NzQ2MTc1OTEsIm5iZiI6MTY3NDUzMTE5MSwianRpIjoiSFVxTmJJSnk1OW1DbEczayIsInN1YiI6NiwicHJ2IjoiMjNiZDVjODk0OWY2MDBhZGIzOWU3MDFjNDAwODcyZGI3YTU5NzZmNyJ9.FQed9bdNDBCb49zIoywl-nDQ1RaA8UJLXOA5C-a9j1Q",
							"type": "string"
						}
					]
				},
				"method": "POST",
				"header": [],
				"body": {
					"mode": "formdata",
					"formdata": [
						{
							"key": "name",
							"value": "lina",
							"type": "text"
						},
						{
							"key": "source",
							"value": "Fotocasa",
							"type": "text"
						},
						{
							"key": "owner",
							"value": "1",
							"type": "text"
						}
					]
				},
				"url": {
					"raw": "http://127.0.0.1:8000/api/lead",
					"protocol": "http",
					"host": [
						"127",
						"0",
						"0",
						"1"
					],
					"port": "8000",
					"path": [
						"api",
						"lead"
					]
				}
			},
			"response": []
		},
		{
			"name": "lead/id",
			"request": {
				"auth": {
					"type": "bearer",
					"bearer": [
						{
							"key": "token",
							"value": "eyJ0eXAiOiJKV1QiLCJhbGciOiJIUzI1NiJ9.eyJpc3MiOiJodHRwOlwvXC8xMjcuMC4wLjE6ODAwMFwvYXBpXC9hdXRoIiwiaWF0IjoxNjc0NTMxMTkxLCJleHAiOjE2NzQ2MTc1OTEsIm5iZiI6MTY3NDUzMTE5MSwianRpIjoiSFVxTmJJSnk1OW1DbEczayIsInN1YiI6NiwicHJ2IjoiMjNiZDVjODk0OWY2MDBhZGIzOWU3MDFjNDAwODcyZGI3YTU5NzZmNyJ9.FQed9bdNDBCb49zIoywl-nDQ1RaA8UJLXOA5C-a9j1Q",
							"type": "string"
						}
					]
				},
				"method": "GET",
				"header": [],
				"url": {
					"raw": "http://127.0.0.1:8000/api/lead/5",
					"protocol": "http",
					"host": [
						"127",
						"0",
						"0",
						"1"
					],
					"port": "8000",
					"path": [
						"api",
						"lead",
						"5"
					]
				}
			},
			"response": []
		}
	]
}